\relax 
\providecommand\hyper@newdestlabel[2]{}
\providecommand*\new@tpo@label[2]{}
\catcode `"\active 
\providecommand\HyperFirstAtBeginDocument{\AtBeginDocument}
\HyperFirstAtBeginDocument{\ifx\hyper@anchor\@undefined
\global\let\oldcontentsline\contentsline
\gdef\contentsline#1#2#3#4{\oldcontentsline{#1}{#2}{#3}}
\global\let\oldnewlabel\newlabel
\gdef\newlabel#1#2{\newlabelxx{#1}#2}
\gdef\newlabelxx#1#2#3#4#5#6{\oldnewlabel{#1}{{#2}{#3}}}
\AtEndDocument{\ifx\hyper@anchor\@undefined
\let\contentsline\oldcontentsline
\let\newlabel\oldnewlabel
\fi}
\fi}
\global\let\hyper@last\relax 
\gdef\HyperFirstAtBeginDocument#1{#1}
\providecommand\HyField@AuxAddToFields[1]{}
\providecommand\HyField@AuxAddToCoFields[2]{}
\babel@aux{ngerman}{}
\@writefile{toc}{\contentsline {section}{\numberline {1}Versuchsdurchf\IeC {\"u}hrung}{2}{section.1}}
\@writefile{toc}{\contentsline {subsection}{\numberline {1.1}Versuchsziel}{2}{subsection.1.1}}
\@writefile{toc}{\contentsline {section}{\numberline {2}Theoretischer Hintergrund}{3}{section.2}}
\@writefile{toc}{\contentsline {subsection}{\numberline {2.1}Zweistrahl-Spektrometer}{3}{subsection.2.1}}
\@writefile{toc}{\contentsline {subsection}{\numberline {2.2}Lumineszenz-Spektrometer}{3}{subsection.2.2}}
\@writefile{toc}{\contentsline {subsection}{\numberline {2.3}Fresnelsche Formeln}{3}{subsection.2.3}}
\@writefile{lof}{\contentsline {figure}{\numberline {1}{\ignorespaces Strahlenverlauf an einer planparallelen Glasplatte\relax }}{4}{figure.caption.2}}
\citation{half}
\citation{wiki:Lumineszenz}
\@writefile{toc}{\contentsline {subsection}{\numberline {2.4}Lumineszenz}{5}{subsection.2.4}}
\@writefile{toc}{\contentsline {section}{\numberline {3}Messungen}{6}{section.3}}
\@writefile{toc}{\contentsline {subsection}{\numberline {3.1}Vorbetrachtungen}{6}{subsection.3.1}}
\@writefile{toc}{\contentsline {subsection}{\numberline {3.2}Messung der Farbfilter}{6}{subsection.3.2}}
\@writefile{lof}{\contentsline {figure}{\numberline {2}{\ignorespaces Vergleich der Transmissionsmessung verschiedenfarbiger Farbfilter.\relax }}{7}{figure.caption.3}}
\@writefile{toc}{\contentsline {subsection}{\numberline {3.3}Messungen zur Glasplatte}{7}{subsection.3.3}}
\@writefile{lof}{\contentsline {figure}{\numberline {3}{\ignorespaces Verlgeich der Reflexions- und Transmissionsmessung bei der Glasplatte\relax }}{8}{figure.caption.4}}
\@writefile{lof}{\contentsline {figure}{\numberline {4}{\ignorespaces Vergleich der Berechnung des Brechungsindex der Glasplatte, wobei der Brechungsindex einmal aus der Transmissions- und einmal aus der Reflexionsmessung bestimmt wurde\relax }}{8}{figure.caption.5}}
\@writefile{toc}{\contentsline {subsection}{\numberline {3.4}Messungen zum Feuerwehrhelm}{9}{subsection.3.4}}
\@writefile{lof}{\contentsline {figure}{\numberline {5}{\ignorespaces Transmissionsmessung eines Ausschnitts aus dem Revier eines Feuerwehrhelms\relax }}{9}{figure.caption.6}}
\@writefile{lof}{\contentsline {figure}{\numberline {6}{\ignorespaces Reflexionsmessung eines Ausschnitts aus dem Revier eines Feuerwehrhelms\relax }}{10}{figure.caption.7}}
\@writefile{toc}{\contentsline {subsection}{\numberline {3.5}Messungen zum Metallinterferenzfilter}{10}{subsection.3.5}}
\@writefile{lof}{\contentsline {figure}{\numberline {7}{\ignorespaces Verlgeich der Messungen zum Metallinterferenzfilter, wobei dieser jeweils unterschiedlich geneigt wurde\relax }}{11}{figure.caption.8}}
\@writefile{toc}{\contentsline {subsection}{\numberline {3.6}Messungen zu PTCDA}{11}{subsection.3.6}}
\@writefile{lof}{\contentsline {figure}{\numberline {8}{\ignorespaces Transmissionsmessung der PTCDA-Probe\relax }}{12}{figure.caption.9}}
\@writefile{lof}{\contentsline {figure}{\numberline {9}{\ignorespaces \relax }}{13}{figure.caption.10}}
\@writefile{toc}{\contentsline {section}{\numberline {4}Zusammenfassung}{14}{section.4}}
\bibcite{half}{1}
\bibcite{wiki:Lumineszenz}{2}
\global\@namedef{scr@dte@section@lastmaxnumwidth}{10.85587pt}
\global\@namedef{scr@dte@subsection@lastmaxnumwidth}{18.26904pt}
