\relax 
\providecommand\hyper@newdestlabel[2]{}
\providecommand*\new@tpo@label[2]{}
\catcode `"\active 
\providecommand\HyperFirstAtBeginDocument{\AtBeginDocument}
\HyperFirstAtBeginDocument{\ifx\hyper@anchor\@undefined
\global\let\oldcontentsline\contentsline
\gdef\contentsline#1#2#3#4{\oldcontentsline{#1}{#2}{#3}}
\global\let\oldnewlabel\newlabel
\gdef\newlabel#1#2{\newlabelxx{#1}#2}
\gdef\newlabelxx#1#2#3#4#5#6{\oldnewlabel{#1}{{#2}{#3}}}
\AtEndDocument{\ifx\hyper@anchor\@undefined
\let\contentsline\oldcontentsline
\let\newlabel\oldnewlabel
\fi}
\fi}
\global\let\hyper@last\relax 
\gdef\HyperFirstAtBeginDocument#1{#1}
\providecommand\HyField@AuxAddToFields[1]{}
\providecommand\HyField@AuxAddToCoFields[2]{}
\babel@aux{ngerman}{}
\@writefile{toc}{\contentsline {section}{\numberline {1}Versuchsdurchf\IeC {\"u}hrung}{2}{section.1}}
\@writefile{toc}{\contentsline {subsection}{\numberline {1.1}Versuchsziel}{2}{subsection.1.1}}
\citation{tem_aufbau}
\@writefile{toc}{\contentsline {section}{\numberline {2}Theoretischer Hintergrund}{3}{section.2}}
\@writefile{toc}{\contentsline {subsection}{\numberline {2.1}Aufbau eines TEM und Strahlengang}{3}{subsection.2.1}}
\@writefile{lof}{\contentsline {figure}{\numberline {1}{\ignorespaces Aufbau eines TEM}}{3}{figure.caption.2}}
\providecommand*\caption@xref[2]{\@setref\relax\@undefined{#1}}
\newlabel{abb:bild}{{1}{3}{Aufbau eines TEM}{figure.caption.2}{}}
\citation{Beugung}
\@writefile{toc}{\contentsline {subsection}{\numberline {2.2}Elektronenbilder im TEM}{4}{subsection.2.2}}
\@writefile{toc}{\contentsline {section}{\numberline {3}Messung}{5}{section.3}}
\@writefile{toc}{\contentsline {subsection}{\numberline {3.1}\IeC {\"U}bungen zur Fokussierung}{5}{subsection.3.1}}
\@writefile{lof}{\contentsline {figure}{\numberline {2}{\ignorespaces fokussierte Kugelansammlung\relax }}{5}{figure.caption.3}}
\@writefile{lof}{\contentsline {figure}{\numberline {3}{\ignorespaces Kugelansammlung im \IeC {\"U}berfokus\relax }}{6}{figure.caption.4}}
\@writefile{lof}{\contentsline {figure}{\numberline {4}{\ignorespaces Kugelansammlung im Unterfokus\relax }}{6}{figure.caption.5}}
\@writefile{toc}{\contentsline {subsection}{\numberline {3.2}Messungen zu Goldinseln}{7}{subsection.3.2}}
\@writefile{lof}{\contentsline {figure}{\numberline {5}{\ignorespaces Darstellung von Goldinseln\relax }}{7}{figure.caption.7}}
\@writefile{lof}{\contentsline {figure}{\numberline {6}{\ignorespaces Auswirkung von Astigmatismen\relax }}{8}{figure.caption.8}}
\@writefile{lof}{\contentsline {figure}{\numberline {7}{\ignorespaces Goldinseln zur Untersuchung des Netzabstandes\relax }}{8}{figure.caption.9}}
\citation{wiki:gold}
\@writefile{lof}{\contentsline {figure}{\numberline {8}{\ignorespaces Ausgew\IeC {\"a}hlte Goldinsel mit Markierung der Atomreihe\relax }}{9}{figure.caption.10}}
\@writefile{lof}{\contentsline {figure}{\numberline {9}{\ignorespaces Intensit\IeC {\"a}tsverlauf der auf den Schirm treffenden Elektronen, wobei auf der x-Achse der Peakabstand und auf der y-Achse die Intensit\IeC {\"a}t abgetragen ist\relax }}{9}{figure.caption.11}}
\@writefile{lof}{\contentsline {figure}{\numberline {10}{\ignorespaces Aufnahme der Elektronenbeugung\relax }}{10}{figure.caption.13}}
\@writefile{lof}{\contentsline {figure}{\numberline {11}{\ignorespaces Umwandlung des Beugungsbildes zu ebenen Beugungsstrichen\relax }}{11}{figure.caption.14}}
\@writefile{lof}{\contentsline {figure}{\numberline {12}{\ignorespaces Auswertung der Lichtintensit\IeC {\"a}t. Dabei stellt die x-Achse den Abstand dar und die y-Achse die Intensit\IeC {\"a}t\relax }}{12}{figure.caption.15}}
\@writefile{toc}{\contentsline {subsection}{\numberline {3.3}Messungen zum Molybd\IeC {\"a}noxidkristall}{13}{subsection.3.3}}
\citation{wiki:mono}
\@writefile{toc}{\contentsline {subsubsection}{\numberline {3.3.1}Aufnahmen zur Elektronenbeugung}{14}{subsubsection.3.3.1}}
\@writefile{lof}{\contentsline {figure}{\numberline {15}{\ignorespaces Elektronenbeugungsbild des Molybd\IeC {\"a}noxidkristalls\relax }}{14}{figure.caption.19}}
\bibcite{tem_aufbau}{1}
\bibcite{Beugung}{2}
\bibcite{wiki:gold}{3}
\bibcite{wiki:mono}{4}
\global\@namedef{scr@dte@section@lastmaxnumwidth}{10.85587pt}
\global\@namedef{scr@dte@subsection@lastmaxnumwidth}{18.26904pt}
\global\@namedef{scr@dte@subsubsection@lastmaxnumwidth}{26.73907pt}
