\relax 
\providecommand\hyper@newdestlabel[2]{}
\providecommand*\new@tpo@label[2]{}
\catcode `"\active 
\providecommand\HyperFirstAtBeginDocument{\AtBeginDocument}
\HyperFirstAtBeginDocument{\ifx\hyper@anchor\@undefined
\global\let\oldcontentsline\contentsline
\gdef\contentsline#1#2#3#4{\oldcontentsline{#1}{#2}{#3}}
\global\let\oldnewlabel\newlabel
\gdef\newlabel#1#2{\newlabelxx{#1}#2}
\gdef\newlabelxx#1#2#3#4#5#6{\oldnewlabel{#1}{{#2}{#3}}}
\AtEndDocument{\ifx\hyper@anchor\@undefined
\let\contentsline\oldcontentsline
\let\newlabel\oldnewlabel
\fi}
\fi}
\global\let\hyper@last\relax 
\gdef\HyperFirstAtBeginDocument#1{#1}
\providecommand\HyField@AuxAddToFields[1]{}
\providecommand\HyField@AuxAddToCoFields[2]{}
\babel@aux{ngerman}{}
\@writefile{toc}{\contentsline {section}{\numberline {1}Versuchsbeschreibung}{2}{section.1}}
\@writefile{toc}{\contentsline {subsection}{\numberline {1.1}Versuchsziel}{2}{subsection.1.1}}
\@writefile{toc}{\contentsline {subsection}{\numberline {1.2}Versuchsaufbau}{3}{subsection.1.2}}
\citation{wiki:debye}
\@writefile{toc}{\contentsline {section}{\numberline {2}Theoretischer Hintergrund}{4}{section.2}}
\@writefile{toc}{\contentsline {subsection}{\numberline {2.1}Das Debye-Model}{4}{subsection.2.1}}
\citation{gross}
\citation{wiki:bcs}
\@writefile{toc}{\contentsline {subsection}{\numberline {2.2}Das freie Elektronengas}{5}{subsection.2.2}}
\@writefile{toc}{\contentsline {subsection}{\numberline {2.3}Die BCS-Theorie}{5}{subsection.2.3}}
\citation{k220}
\citation{k2001}
\citation{cx1030}
\@writefile{toc}{\contentsline {section}{\numberline {3}Messung}{6}{section.3}}
\@writefile{toc}{\contentsline {subsection}{\numberline {3.1}Vorbereitung zur Messung}{6}{subsection.3.1}}
\@writefile{toc}{\contentsline {subsection}{\numberline {3.2}Messfehler}{6}{subsection.3.2}}
\@writefile{toc}{\contentsline {subsection}{\numberline {3.3}Bestimmung der Debye-Temperatur und der Zustandsdichte}{7}{subsection.3.3}}
\@writefile{toc}{\contentsline {subsection}{\numberline {3.4}Bestimmung der Sprungtemperatur und Sprungh\IeC {\"o}he}{8}{subsection.3.4}}
\@writefile{toc}{\contentsline {subsection}{\numberline {3.5}Vergleich mit der BCS-Theorie}{9}{subsection.3.5}}
\citation{bcs-compare}
\@writefile{toc}{\contentsline {section}{\numberline {4}Auswertung}{12}{section.4}}
\bibcite{wiki:debye}{1}
\bibcite{gross}{2}
\bibcite{wiki:bcs}{3}
\bibcite{k220}{4}
\bibcite{cx1030}{5}
\bibcite{k2001}{6}
\bibcite{bcs-compare}{7}
\global\@namedef{scr@dte@section@lastmaxnumwidth}{10.85587pt}
\global\@namedef{scr@dte@subsection@lastmaxnumwidth}{18.26904pt}
