10.000 0.231
20.000 16.830
30.000 11.806
40.000 7.762
50.000 3.782
60.000 3.602
70.000 3.869
80.000 3.147
90.000 1.814
100.000 2.657
110.000 1.912
120.000 1.865
130.000 2.265
140.000 1.392
150.000 1.477
160.000 1.441
170.000 1.380
180.000 1.366
190.000 1.376
200.000 1.219
210.000 1.258
220.000 1.197
230.000 1.378
240.000 1.369
250.000 1.348
260.000 1.416
270.000 1.636
280.000 1.614
290.000 2.020
300.000 2.059
310.000 2.125
320.000 2.405
330.000 2.903
340.000 3.457
350.000 3.910
360.000 5.076
370.000 5.721
380.000 7.690
390.000 11.009
400.000 15.650
410.000 18.409
420.000 24.878
430.000 29.051
440.000 44.311
450.000 83.421
460.000 93.146
470.000 48.831
480.000 9.461
490.000 6.280
500.000 4.518
510.000 2.728
520.000 1.960
530.000 1.773
540.000 1.346
550.000 1.096
560.000 0.925
570.000 0.813
580.000 0.763
590.000 0.647
600.000 0.592
610.000 0.597
620.000 0.536
630.000 0.521
640.000 0.428
650.000 0.480
660.000 0.460
670.000 0.440
680.000 0.428
690.000 0.397
700.000 0.453
710.000 0.384
720.000 0.342
730.000 0.429
740.000 0.371
750.000 0.352
760.000 0.322
770.000 0.310
780.000 0.294
790.000 0.280
800.000 0.332
810.000 0.282
820.000 0.394
830.000 0.306
840.000 0.328
850.000 0.316
860.000 0.297
870.000 0.325
880.000 0.339
890.000 0.294
900.000 0.298
910.000 0.307
920.000 0.296
930.000 0.290
940.000 0.298
950.000 0.300
960.000 0.280
970.000 0.264
980.000 0.228
990.000 0.228
1000.000 0.269
